mode: set
gitlab.com/Jota_cepeda/meli_challenge/internal/handler/mutant.go:12.66,15.16 2 1
gitlab.com/Jota_cepeda/meli_challenge/internal/handler/mutant.go:20.2,21.8 2 1
gitlab.com/Jota_cepeda/meli_challenge/internal/handler/mutant.go:15.16,18.3 2 1
gitlab.com/Jota_cepeda/meli_challenge/internal/handler/mutant.go:26.72,29.16 2 1
gitlab.com/Jota_cepeda/meli_challenge/internal/handler/mutant.go:34.2,34.43 1 1
gitlab.com/Jota_cepeda/meli_challenge/internal/handler/mutant.go:29.16,32.3 2 0
